[
  "redis-brain.coffee",
  "shipit.coffee",
  "applause.coffee",
  "bitbucket.coffee",
  "catfacts.coffee",
  "cheer.coffee",
  "decide.coffee",
  "directions.coffee",
  "google.coffee",
  "spotify.coffee",
  "working-on.coffee",
  "carlton.coffee",
  "beerme.coffee",
  "birthday.coffee",
  "deadline.coffee",
  "hashing.coffee",
  "rubygems.coffee",
  "npm.coffee",
  "sloth-me.coffee",
  "whos-turn.coffee",
  "travis.coffee",
  "tvshow.coffee",
  "url.coffee",
  "wikipedia.coffee"
]

